{
  "build": {
    "core": "rl78g10", 
    "extra_flags": "",  
    "f_cpu": "20000000L",
    "mcu": "rl78g10"
  }, 
  "name": "RL78/G10 Eval Board", 
  "upload": {
    "maximum_ram_size": 256, 
    "maximum_size": 2048
  }, 
  "url": "https://www.example.com", 
  "vendor": "Renesas"
}
